[gd_scene load_steps=7 format=2]

[ext_resource path="res://metallic_shader/NormalMap2.png" type="Texture" id=1]
[ext_resource path="res://metallic_shader/IMG_9365.PNG" type="Texture" id=2]

[sub_resource type="Shader" id=1]
code = "shader_type canvas_item;

const vec2 heightMapResolution = vec2(20000);
const float normalStrength = 8.0;
const float textureOffset = 34.0;

uniform float t1: hint_range(-1, 1);
uniform float t2: hint_range(-1, 1);

uniform float k1: hint_range(0, 10);
uniform float k2: hint_range(0, 0.1);

uniform float light_height: hint_range(0, 0.15);

uniform float a: hint_range(0, 6.28);

uniform vec4 color_0: hint_color;
uniform vec4 color_1: hint_color;
uniform vec4 color_2: hint_color;

uniform sampler2D noise;

vec2 stdNormalMap(in vec2 uv, float pixelToTexelRatio, sampler2D tex) 
{
    float height = texture(tex, uv).r;
    return vec2(dFdx(height), dFdy(height)) * pixelToTexelRatio;
}

vec2 texNormalMap(in vec2 uv, sampler2D tex, sampler2D mask)
{
    vec2 s = 1.0/heightMapResolution.xy;
    
    float p = texture(tex, uv).x;
    float h1 = texture(tex, uv + s * vec2(textureOffset,0)).x;
    float v1 = texture(tex, uv + s * vec2(0,textureOffset)).x;
       
   	return (p - vec2(h1, v1));
}

void fragment() {
	vec2 uv = UV;
	vec2 uv_shift = vec2(-cos(a),-sin(a)) * 0.04*k2;
	vec3 norm = (texture(NORMAL_TEXTURE, uv).rgb - 0.5) * 2.0;
//	norm = vec3(stdNormalMap(uv, 6.9, TEXTURE), 1);
	norm = vec3(texNormalMap(uv, TEXTURE, noise), 1);
//	norm = (texture(NORMAL_TEXTURE, uv).rgb);
	norm = NORMAL;
	vec3 fake_light = vec3(cos(a),sin(a),0.5)-vec3(uv-0.5, light_height)*k1;
	vec3 fake_light_2 = vec3(cos(a),sin(a),0.5)+vec3(uv-0.5, light_height)*k1;
	
	vec3 norm2 = norm;
	norm2.z = 0.0;
	
	vec3 fake_light2 = fake_light;
	fake_light2.z = 0.0;
	
	vec3 fake_light3 = fake_light_2;
	fake_light3.z = 0.0;
	
	
	fake_light2 = normalize(fake_light2);
	fake_light3 = normalize(fake_light3);
	
	COLOR.rgb = vec3(0);
	
	float test = dot(reflect(fake_light2, norm2), fake_light2);
//	float test = dot(refract(fake_light2, norm, 0.99), norm);
	
//	test = dot(fake_light, norm);
	float k = clamp(dot(fake_light2, norm2), 0, 1);
	float k_2 = clamp(dot(fake_light3, norm2), -1, 0.0);
//	k = max (0.5, k);
	k *= smoothstep(t1, t2, abs(k));
	k_2 *= smoothstep(t1, t2, abs(k_2));
	float k_main = dot(fake_light, norm);
	
	float tex_a = texture(TEXTURE, uv).r;
	
	COLOR.rgb = vec3(0.5);
	COLOR.rgb = mix(vec3(0.5), vec3(1,1,1), pow(k_main, 1) * 0.5  );
	COLOR.rgb = mix(COLOR.rgb, vec3(1),  k);
	COLOR.rgb = mix(COLOR.rgb, vec3(0.7),  k_2);
	
	
	COLOR.rgb += texture(TEXTURE, uv + uv_shift).r * 0.2 * (1.0-tex_a);
	COLOR.rgb -= texture(TEXTURE, uv - uv_shift).r * 0.2 * (1.0-tex_a);
	
	
	
	float reflect_dot = dot(refract(fake_light, norm, pow(tex_a, 1)), reflect(vec3(uv - 0.5, 2.0), norm));
//	reflect_dot = dot(refract(fake_light, norm, pow(tex_a, 3)), reflect(vec3(uv - 0.5, 2.0), norm));
//	reflect_dot = dot(refract(fake_light, norm, pow(tex_a, 3)), refract(vec3(1.5*(uv - 0.5), -2.0), norm, tex_a));


//	reflect_dot = dot(refract(fake_light, norm, pow(tex_a, 3) - texture(noise, uv).r*0.0), refract(vec3(1.5*(uv - 0.5) + vec2(-cos(a), -sin(a))*k2, -2.0), norm2, tex_a));


	COLOR.rgb = vec3(0.1);
	COLOR.rgb = mix(vec3(0.1), color_0.rgb, smoothstep(0.0, 0.3, tex_a));

	COLOR.rgb = mix(COLOR.rgb, color_1.rgb, tex_a * reflect_dot*0.99 );
	
	COLOR.rgb = mix(COLOR.rgb, color_2.rgb, tex_a * (1.0-reflect_dot*0.99));
	
//	COLOR.rgb = norm;
}"

[sub_resource type="OpenSimplexNoise" id=3]

[sub_resource type="NoiseTexture" id=4]
noise = SubResource( 3 )

[sub_resource type="ShaderMaterial" id=2]
shader = SubResource( 1 )
shader_param/t1 = -1.0
shader_param/t2 = -1.0
shader_param/k1 = 2.426
shader_param/k2 = 0.1
shader_param/light_height = 0.0
shader_param/a = 6.28
shader_param/color_0 = Color( 0.584314, 0.298039, 0, 1 )
shader_param/color_1 = Color( 0.737255, 0.745098, 0.745098, 1 )
shader_param/color_2 = Color( 0.0313726, 0.141176, 0.215686, 1 )
shader_param/noise = SubResource( 4 )

[node name="Node2D" type="Node2D"]

[node name="Sprite" type="Sprite" parent="."]
material = SubResource( 2 )
texture = ExtResource( 2 )
normal_map = ExtResource( 1 )

[node name="Light2D" type="Light2D" parent="."]
visible = false
position = Vector2( -1290.94, -1138.43 )
scale = Vector2( 10.5195, 10.5195 )
